…
    ##        shCON_0hrs_1 shCON_0hrs_2 shCON_2hrs_1
    ## AGER       5.699205     6.356261     6.030818
    ## ALOX12     3.377277     3.372749     3.472823
    ## ALOX15     5.699205     5.795961     5.512351

Available aliases

``` r
Mapper_(fit_Hotgenes) %>% head()
```

    ## # A tibble: 6 × 2
    ##   Feature ensembl_id     
    ##   <chr>   <chr>          
    ## 1 AGER    ENSG00000204305
    ## 2 AGER    ENSG00000230514
    ## 3 AGER    ENSG00000229058
    ## 4 AGER    ENSG00000231268
    ## 5 AGER    ENSG00000237405
    ## # ℹ 1 more row
…
``` r
# getting HCPC details
FactoOutput$TopTibble # Feature
```

    ## # A tibble: 88 × 9
    ##   Cluster Interpretation       Feature v.test `Mean in category` `Overall mean` `sd in category` `Overall sd` p.value
    ##   <fct>   <fct>                <chr>    <dbl>              <dbl>          <dbl>            <dbl>        <dbl>   <dbl>
    ## 1 1       Cluster has elevated IFIT2     2.91               10.3           9.89           0.100        0.339  0.00362
    ## 2 1       Cluster has elevated DDIT3     2.75               10.4          10.1            0.0402       0.231  0.00593
    ## 3 1       Cluster has elevated MAP3K1    2.72               10.0           9.75           0.0537       0.216  0.00660
    ## 4 1       Cluster has elevated PTGFR     2.65               10.4          10.1            0.0489       0.285  0.00797
    ## 5 1       Cluster has elevated PGK1      2.63               15.3          15.2            0.0224       0.0484 0.00851
    ## # ℹ 83 more rows
…
