…
``` r
DE(htgs,
   Report    = "FC",
   contrasts  = "sh_EWS_vs_Ctrl",
   Rank_name = "Feature",
   padj_cut  = 1) |> head()
## $sh_EWS_vs_Ctrl
## # A tibble: 208 × 3
##    Feature log2FoldChange ensembl_id     
##    <chr>            <dbl> <chr>          
##  1 C1R             -0.799 ENSG00000159403
##  2 C1R             -0.799 ENSG00000288512
##  3 CCL2            -0.945 ENSG00000108691
##  4 C1S             -0.594 ENSG00000182326
##  5 MMP3             0.578 ENSG00000149968
##  6 HMGB2            0.621 ENSG00000164104
##  7 STAT1           -0.355 ENSG00000115415
##  8 CXCL6           -1.65  ENSG00000124875
##  9 IL1R1           -0.414 ENSG00000115594
## 10 RAC1             0.265 ENSG00000136238
## # ℹ 198 more rows
```
…
