…
Inspect cluster assignments and top contributing features:

``` r
FactoOutput$TopTibble   # top features per cluster
## # A tibble: 102 × 10
##    Cluster Interpretation           Feature v.test `Mean in category` `Overall mean`
##    <fct>   <fct>                    <chr>    <dbl>              <dbl>          <dbl>
##  1 1       Above average in cluster IFIT2     2.91              10.3            9.89
##  2 1       Above average in cluster DDIT3     2.75              10.4           10.1 
##  3 1       Above average in cluster MAP3K1    2.72              10.00           9.75
##  4 1       Above average in cluster PTGFR     2.65              10.4           10.1 
##  5 1       Above average in cluster PGK1      2.63              15.3           15.2 
##  6 1       Above average in cluster TWIST2    2.51              13.3           13.1 
##  7 1       Above average in cluster TWIST2    2.51              13.3           13.1 
##  8 1       Above average in cluster IFIT3     2.51               9.09           8.85
##  9 1       Above average in cluster MKNK1     2.34              10.9           10.7 
## 10 1       Above average in cluster IFIT1     2.22              10.8           10.4 
## # ℹ 92 more rows
## # ℹ 4 more variables: `sd in category` <dbl>, `Overall sd` <dbl>, p.value <dbl>,
## #   ensembl_id <chr>
…
