…
The mapper links `Feature` names back to the original gene symbol, full
protein accession, and description. Hotgenes functions use the mapper to
display human-readable labels in plots and tables.

``` r
mapper_df <- filtered_exps |>
  dplyr::select(
    "Feature",
    "Gene"        = "gene_symbol",
    "Protein"     = "protein",
    "Description" = "description"
  )

head(mapper_df)
## # A tibble: 6 × 4
##   Feature  Gene     Protein                   Description                       
##   <chr>    <chr>    <chr>                     <chr>                             
## 1 IGLV4.69 IGLV4-69 sp|A0A075B6H9|LV469_HUMAN Immunoglobulin lambda variable 4-…
## 2 IGLV4.60 IGLV4-60 sp|A0A075B6I1|LV460_HUMAN Immunoglobulin lambda variable 4-…
## 3 IGLV3.16 IGLV3-16 sp|A0A075B6K0|LV316_HUMAN Immunoglobulin lambda variable 3-…
## 4 IGLV3.10 IGLV3-10 sp|A0A075B6K4|LV310_HUMAN Immunoglobulin lambda variable 3-…
## 5 IGLV3.9  IGLV3-9  sp|A0A075B6K5|LV39_HUMAN  Immunoglobulin lambda variable 3-…
## # ℹ 1 more row
```
…
