Hotgenes class — Hotgenes-class • Hotgenes
…
sqlQuery <- "SELECT * FROM ENSEMBL, gene_info WHERE ENSEMBL._id == gene_info._id;"

ensembl_Symbol <- DBI::dbGetQuery(dbCon, sqlQuery) %>%
  dplyr::select(dplyr::any_of(c("Feature" = "symbol", 
                                "gene_name", 
                                "ensembl_id"))) %>%
  tibble::as_tibble()

Test_Hotgenes <- fit_Hotgenes

Mapper_(Test_Hotgenes) <- ensembl_Symbol
Mapper_(Test_Hotgenes)
#> # A tibble: 339 × 3
#>    Feature gene_name                                            ensembl_id     
#>    <chr>   <chr>                                                <chr>          
#>  1 AGER    advanced glycosylation end-product specific receptor ENSG00000204305
#>  2 AGER    advanced glycosylation end-product specific receptor ENSG00000229058
#>  3 AGER    advanced glycosylation end-product specific receptor ENSG00000234729
#>  4 AGER    advanced glycosylation end-product specific receptor ENSG00000231268
#>  5 AGER    advanced glycosylation end-product specific receptor ENSG00000230514
#>  6 AGER    advanced glycosylation end-product specific receptor ENSG00000206320
#>  7 AGER    advanced glycosylation end-product specific receptor ENSG00000237405
#>  8 ALOX12  arachidonate 12-lipoxygenase, 12S type               ENSG00000108839
#>  9 ALOX15  arachidonate 15-lipoxygenase                         ENSG00000161905
#> 10 ALOX5   arachidonate 5-lipoxygenase                          ENSG00000012779
#> # ℹ 329 more rows
…
