filters Mapper across all columns with hotList — hotList_mapper • Hotgenes
…
# from limma
fit_Hotgenes <- readRDS(fit_Hotgenes_dir) %>% 
  update_object()

enlist_ <-c("ENSG00000170345", 
            "ENSG00000159403",
            'FOS',
            "ENSG00000011600")

hotList_mapper(fit_Hotgenes,
             hotList = NULL)
#> # A tibble: 336 × 2
#>    Feature ensembl_id     
#>    <chr>   <chr>          
#>  1 AGER    ENSG00000204305
#>  2 AGER    ENSG00000230514
#>  3 AGER    ENSG00000229058
#>  4 AGER    ENSG00000231268
#>  5 AGER    ENSG00000237405
#>  6 AGER    ENSG00000234729
#>  7 AGER    ENSG00000206320
#>  8 ALOX12  ENSG00000108839
#>  9 ALOX15  ENSG00000161905
#> 10 ALOX5   ENSG00000012779
#> # ℹ 326 more rows
…
