What is Hotgenes? • Hotgenes
…
# getting HCPC details
FactoOutput$TopTibble # Feature
## # A tibble: 88 × 9
##    Cluster Interpretation       Feature v.test `Mean in category` `Overall mean`
##    <fct>   <fct>                <chr>    <dbl>              <dbl>          <dbl>
##  1 1       Cluster has elevated IFIT2     2.91              10.3            9.89
##  2 1       Cluster has elevated DDIT3     2.75              10.4           10.1 
##  3 1       Cluster has elevated MAP3K1    2.72              10.0            9.75
##  4 1       Cluster has elevated PTGFR     2.65              10.4           10.1 
##  5 1       Cluster has elevated PGK1      2.63              15.3           15.2 
##  6 1       Cluster has elevated TWIST2    2.51              13.3           13.1 
##  7 1       Cluster has elevated IFIT3     2.51               9.09           8.85
##  8 1       Cluster has elevated MKNK1     2.34              10.9           10.7 
##  9 1       Cluster has elevated IFIT1     2.22              10.8           10.4 
## 10 1       Cluster has elevated STAT2     2.20              12.6           12.5 
## # ℹ 78 more rows
## # ℹ 3 more variables: `sd in category` <dbl>, `Overall sd` <dbl>, p.value <dbl>
…
